Date Entered	Name	Cooperating partner (CP)	Programme	Distribution Point	Complainant Telephone	Gender	Case Category	Description	Resolution	
2014-10-29 09:51:02	Teachers	Not Applicable	Not Applicable	Mandera	0707915422	Male	Not applicable	A man called saying in mandera North they have very few teachers and are requesting WFP to hire extra teachers for them.	I told him WFP is a food aid organization and we don&#039;t hire teachers that is the responsibility of the government of Kenya.
2014-10-28 12:55:24	Food inquiry	Consortium of Cooperating Partners (COCOP)	General Food Distribution (GFD)	bore hall11	0722958468	Male	Distribution enquiry	A beneficiary called to inquire why their was delay in food distribution.	I told him the delay was a result of pipeline break and distribution is on going.
2014-10-21 08:32:40	Food Missing from the School Store.	Ministry of Education (MoE)	General Food Distribution (GFD)		0713144456	Male	Theft or loss	The caller is a committee in Kuticha Primary School, Ashabito division, Mandera County. He is saying he went to the school store for spot check only to find out 37 bags of sorghum missing from the school store. He wants WFP to investigate the matter and give feedback.	
2014-10-21 08:17:02	Sorghum	Consortium of Cooperating Partners (COCOP)	General Food Distribution (GFD)	Mandera.	0713755577	Female	General enquiry	The caller  is requesting if the Sorghum they are receiving can be changed to Rice or more stable food.	WFP acknowledges that sorghum is not preferred by all beneficiaries, and we do advocate on behalf of beneficiaries to our donors for more diverse cereals. But in the end, to meet immediate food needs and alleviate hunger in a timely manner WFP distributes the food that donor countries provide. If donors provide rice, then we can distribute rice. If they provide sorghum, then we distribute sorghum.
2014-10-21 08:16:59	Sorghum	Consortium of Cooperating Partners (COCOP)	General Food Distribution (GFD)	Mandera.	0713755577	Female	General enquiry	The caller  is requesting if the Sorghum they are receivng can be changed to Rice or more stable food.	WFP acknowledges that sorghum is not preferred by all beneficiaries, and we do advocate on behalf of beneficiaries to our donors for more diverse cereals. But in the end, to meet immediate food needs and alleviate hunger in a timely manner WFP distributes the food that donor countries provide. If donors provide rice, then we can distribute rice. If they provide sorghum, then we distribute sorghum.
2014-10-21 08:15:07	Assistance.	Consortium of Cooperating Partners (COCOP)	General Food Distribution (GFD)		0702307917	Female	General enquiry	The caller is looking for assistance from WFP. She asking if WFP can help her in paying the school fees of her children.	WFP don&#039;t provide school fees, kindly try other avenues/ agencies.
2014-10-21 07:35:28	Sorghum	Consortium of Cooperating Partners (COCOP)	General Food Distribution (GFD)		0725023070	Female	General enquiry	The caller is asking from WFP if the current ration ( sorghum) can be changed to more stable food.	That is what  we are currently receiving from our donors, please bear with the organisation.
2014-10-17 07:45:40	Food distribution.	Consortium of Cooperating Partners (COCOP)	General Food Distribution (GFD)		0708851614	Female	Distribution enquiry	The caller is checking when is the next food distribution in Mandera.	The next distribution is next month, you will be notified when the distribution will commence.
2014-10-15 14:44:26	Food inquiry	Consortium of Cooperating Partners (COCOP)	General Food Distribution (GFD)	Elwak	0728431006	Female	Distribution enquiry	A beneficiary wanted to know why the food delayed	I told him we had a pipeline break but food is being distributed.
2014-10-15 14:00:36	Food inquiry	Consortium of Cooperating Partners (COCOP)	General Food Distribution (GFD)	Wargadud	0717336048	Male	Distribution enquiry	The beneficiary is inquiring why food delayed in the month of September.	I told him it was as a result of pipeline break.
2014-10-15 13:45:16	Food inquiry	Consortium of Cooperating Partners (COCOP)	General Food Distribution (GFD)	mandera	0721422273	Male	Distribution enquiry	The beneficiary to inquire about the delay in distribution	I told him the delay is as a result of a pipeline break.
2014-09-30 13:57:50	Food inquiry	Consortium of Cooperating Partners (COCOP)	General Food Distribution (GFD)	Wargadud	07018998996	Male	Distribution enquiry	A beneficiary called inquiring why the food has delayed, he also requested WFP to introduce programs for building dam and borehole for the community.	I told him the food delayed due to a pipeline break and they will receive food in two weeks time. We have food for asset program in Mandera that is helping the community to build water pan.
2014-09-30 13:53:59	Food inquiry	Consortium of Cooperating Partners (COCOP)	General Food Distribution (GFD)	Takaba	0713617126	Male	Distribution enquiry	A beneficiary called inquiring why the food has delayed	I told him it delayed due to a pipeline break and they will receive in two weeks.
2014-09-30 13:52:06	Food inquiry	Consortium of Cooperating Partners (COCOP)	General Food Distribution (GFD)	Takaba	0720598584	Male	Distribution enquiry	A beneficiary called to inquire why the food has delayed.	I told him the food delayed as a result of pipeline break and they will receive it in two weeks.
2014-09-30 13:48:34	Food inquiry	Consortium of Cooperating Partners (COCOP)	General Food Distribution (GFD)	Wargadud	0718166822	Male	Distribution enquiry	A beneficiary called asking why the food has delayed and they are affected by drought	I told him the food delayed due to pipeline break and he will receive the food in two weeks.
2014-09-30 13:24:31	Food inquiry	Consortium of Cooperating Partners (COCOP)	General Food Distribution (GFD)	Wargadud	0704600748	Male	Distribution enquiry	A beneficiary called inquiring why the food has delayed and they have drought in their region.	I told him food delayed because of a pipeline break and they will receive food in two weeks time.
2014-09-30 13:13:13	Registration	Consortium of Cooperating Partners (COCOP)	General Food Distribution (GFD)	Rhamu	0708837041	Male	Targeting/Registration	A man called asking when we are doing the re-targeting in Mandera county	I told him it will be done in the month of October.
2014-09-30 12:25:56	Food inquiry	Consortium of Cooperating Partners (COCOP)	General Food Distribution (GFD)	Rhamu	0723418167	Male	Distribution enquiry	The beneficiary complained that the food is small and not enough	I told him the ration depends on the house hold of every family and that is standard to all beneficiary.
2014-09-26 09:17:14	Others	Consortium of Cooperating Partners (COCOP)	Not Applicable	mandera	0729781973	Male	Not applicable	The beneficiary was testing the line	
2014-09-26 08:30:10	Targeting Issue	Consortium of Cooperating Partners (COCOP)	General Food Distribution (GFD)	Elwak	0725870018	Male	Targeting/Registration	The caller complained of drought in the region and inquired when the next targeting will take place.	I told him  re-targeting process will take place in October and  he should take part in it to get registered.
2014-09-26 08:17:17	Food inquiry	Consortium of Cooperating Partners (COCOP)	General Food Distribution (GFD)	mandera	0725870018	Male	General enquiry	The beneficiary called requesting WFP to change the Sorghum as a commodity. He says the children develop stomach problems when they eat it.	I told him Apparently Sorghum is one of the commodity we receive from our donors and we can change for know. I advised him to cook the sorghum in a different manner like Grinding it  making porridge or cooking chapati with it.
2014-09-24 07:44:37	Theft in school	Consortium of Cooperating Partners (COCOP)	School Meals	mandera	0720613432	Female	Theft or loss	A woman called saying Karboqole Primary school in Mandera the head teacher is loading food from the school to go sale.	After communicating to the FMA to verify this claim. It was concluded that food had arrived in the school that day and it was being offloaded to the stores. All the food are in place and no food was stolen.
2014-09-24 07:15:07	Food inquiry	Action Aid	General Food Distribution (GFD)	Wargadud	015607883	Female	Distribution enquiry	The beneficiary called to inquire when food will be distributed	I told him they will receive it in one weeks time.
2014-09-24 07:11:59	Testing the line	Consortium of Cooperating Partners (COCOP)	Not Applicable	Rhamu	0720437956	Female	Not applicable	The caller was testing the line	
2014-09-24 07:06:30	Food inquiry	Consortium of Cooperating Partners (COCOP)	General Food Distribution (GFD)	Shimbir Fatuma	0722422718	Male	Distribution inclusion/exclusion	A beneficiary called saying their is drought when will WFP bring food in their area.	I told him there is a pipeline break but the food will reach in two weeks time.
2014-09-24 05:49:54	Testing the line	Consortium of Cooperating Partners (COCOP)	Not Applicable	mandera	0713435957	Female	Not applicable	The caller was testing the line.	
2014-09-18 08:55:14	Targeting Issue	Consortium of Cooperating Partners (COCOP)	General Food Distribution (GFD)	Rhamu	0722597413	Male	Targeting/Registration	A man called saying that the people registered in our program are not needy and don&#039;t qualify to receive the food. People who are needy and deserve this help are not included during registration.	I told him the selection and registration process is done by the community in the field and Wfp only supervises. We will take his recommendation and ensure a proper re-targeting is done next time.
2014-09-18 07:24:46	General Enquaries	Consortium of Cooperating Partners (COCOP)	Not Applicable	Rhamu	0722597413	Male	General enquiry	A man called the hotline, he is not a beneficiary but he needed help from Wfp. He said with the insecurity in the area they are no jobs, lost their animals as result of war and they have no food.	I explained to him that WFP runs some programs in Mandera and the re-targeting exercise has already taken place. We will inform the community the next time we register new beneficiaries
2014-09-16 07:45:14	Diversion of Pulses.	Consortium of Cooperating Partners (COCOP)	General Food Distribution (GFD)	Kalicha.	0729403493	Male	Fraud & Corruption	The caller from Kalicha  is saying that, there was 200 bags of pulses locked in private warehouse. He further said that, the pulses was supposed be distributed this cycle but it was never done. He alleges that, the RC and the COCOP staff colluded with the Traders and the pulses was ferried across to Ethiopia. He said, he is ready to give further information if contacted. He wants WFP to investigate the matter and give feedback. His contacts are: Osman of  tel number: 0729403493. 	WFP staff have not been able to gain access to this area which is in Rhamu Location in Mandera North due to the inter-clan clashes which have rocked the area since May 2014. WFP CP in Mandera which is COCOP is implicated in this complaint and after contacting them on this issue COCOPs programme co-ordinator said that the allegations were not true because in the area especially in Mandera North (Rhamu) and East (Mandera town and Lafey) there is alot of relief food on sale which comes from across the border in somalia, and is sold by traders in local markets, with pulses having a huge market in Ethiopia. He emphasized that despite WFP not being able to monitor Mandera East and North areas, as well as not carrying out regular physical inventories in their stores in Mandera Town, COCOP is committed to carry out its mandate as stipulated and required by WFP, and is not in any way involved in selling of WFP food or any food  whatsoever. Efforts to reach the whistleblower have been futile but will continue to reach him from time to time. WFP Wajir/Mandera will prioritise and visit the FDP when the area is cleared for field movement.
2014-09-15 13:07:40	Food distribution.	Consortium of Cooperating Partners (COCOP)	General Food Distribution (GFD)	Shir Shir	0728054556	Female	Distribution enquiry	He is inquiring about the next distribution of food in Mandera. He is saying people are dying of hunger and he wanted to know when the distribution will take place.	The food is currently received in the warehouse. soon distribution will start for areas not affected by the conflicts.
2014-09-15 12:47:32	Assistance from WFP	Consortium of Cooperating Partners (COCOP)	General Food Distribution (GFD)		0703900153	Female	General enquiry	The caller is saying he is affected by the recent conflicts and he wants assistance from WFP.	Kindly check with COCOP who are the leading agency of WFP in Mandera. They will give you the full information.
2014-08-29 06:56:58	Food distribution.	Consortium of Cooperating Partners (COCOP)	General Food Distribution (GFD)	Mandera	0729638635	Male	Distribution enquiry	The caller is inquiring when is the next distribution in Mandera. He saying that, there is sever drought and he wanted the next cycle.	Sorry currently there is no distribution planned in Mandera area. Because of the inter clan conflicts. You will be informed when the distribution will commence.
2014-08-15 05:32:49	Food distribution.	Consortium of Cooperating Partners (COCOP)	General Food Distribution (GFD)	Rhamu	0717056060	Female	General enquiry	The caller is asking when is the distribution for the next cycle.	COCOP is working together with WFP. You will be informed when the distribution will take place.
2014-08-11 07:07:24	Appreciation.	Consortium of Cooperating Partners (COCOP)	General Food Distribution (GFD)		0718102961	Female	General enquiry	The caller from Mandera, called the hotline to appreciate the programs WFP is undertaking in Mandera. He said he is grateful for the food provided by WFP.	Your message noted and acknowledged.
2014-08-06 08:47:07	Food inquiry	Consortium of Cooperating Partners (COCOP)	General Food Distribution (GFD)	mandera	0720697204	Male	General enquiry	A beneficiary called requesting we should change sorghum as commodity.	I explained to him that the food WFP provides comes from the donor. As of now the donors as giving us Sorghum as a commodity, we cannot change it because this is the only food in the food basket we have.
2014-08-06 08:27:45	Food inquiry	Consortium of Cooperating Partners (COCOP)	General Food Distribution (GFD)	mandera	0720697204	Male	General enquiry	A beneficiary called requesting we change sorghum as a commodity.	I explained to him that the food WFP provides comes from the donor. As of now the donors as giving us Sorghum as a commodity, we cannot change it because this is the only food in the food basket we have.
2014-08-06 08:12:03	Food inquiry	Consortium of Cooperating Partners (COCOP)	General Food Distribution (GFD)	Elwak	0725681989	Male	General enquiry	A beneficiary called requesting we change sorghum as a food commodity	I explained to him that the food WFP provides comes from the donor. As of now the donors as giving us Sorghum as a commodity, we cannot change it because this is the only food in the food basket we have.
2014-07-31 20:21:31	Theft and Corruption	Ministry of Education (MoE)	School Meals	Mandera	0719719884	Male	General enquiry	A man called the hotline saying Mandera Boys town is selling the food distributed by WFP to the Market.	WFP staff are not allowed to visit the area due to insecurity and the SMPO Mandera East Mr.Yakub is investigating the case and the report will be shared by 17.10.2014.
2014-07-30 13:19:25	Food inquiry	Consortium of Cooperating Partners (COCOP)	General Food Distribution (GFD)	mandera	0720697204	Female	General enquiry	A beneficiary called requesting we should change sorghum as a commodity in the food basket.	I told him WFP receives food from donors and for know the donors are giving out sorghum and we cannot change that.
2014-07-30 13:12:47	Food inquiry	Consortium of Cooperating Partners (COCOP)	General Food Distribution (GFD)	Elwak	0725681989	Male	General enquiry	A beneficiary called requesting we change sorghum with another commodity	I told him that WFP receives its food from Donors and they are providing sorghum as a commodity therefore, we cannot exchange it with anything else.
2014-07-30 12:57:43	Testing the line	Action Aid	Cash For Assets (CFA)	Rhamu	071494726	Male	General enquiry	A beneficiary called to test the WFP hotline.	I told him he can call during office hours for compalains or feedback.
2014-07-30 12:54:06	Testing the line	Ministry of Education (MoE)	School Meals	Rhamu	0723815049	Male	Technical Issues	A beneficiary called the hotline to test the line.	I told him yes the hotline works and he can call during working hour to complain or give feedback.
2014-07-30 12:44:54	Testing the line	Ministry of Education (MoE)	School Meals	Rhamu	0722392035	Female	General enquiry	A beneficiary called to test the WFP hotline.	I told him it is working and he can call during office time for complains and feedback.
2014-07-30 12:38:30	Testing the line	Consortium of Cooperating Partners (COCOP)	School Meals	Rhamu	0725480680	Male	General enquiry	Am beneficiary called the hotline to test the line.	I told him it is working and he can call during office time for complains and feedback.
2014-07-30 12:36:36	Registration	Consortium of Cooperating Partners (COCOP)	General Food Distribution (GFD)	Rhamu	0719795413	Female	General enquiry	A beneficiary called inquiring about the registration process for GFD	I told her a re-targeting excise is done every year in the month of April where the new figures for GFD in every FDP is announced to the community.The community are given the right to select the most vulnerable in the community to benefit from this project.
2014-07-30 12:23:47	Testing the line	Ministry of Education (MoE)	School Meals	Elwak	0722103823	Male	General enquiry	The beneficiary was testing the WFP hotline	I told them it is working and they can call during office time for complains and feedback.
2014-07-30 12:22:34	Testing the line	Ministry of Education (MoE)	School Meals	Rhamu	0715518496	Male	General enquiry	the beneficiary was testing the line.	I told them it is working and they can call during office time for complains and feedback.
2014-07-30 12:21:19	Testing the line	Ministry of Education (MoE)	Mobile Money Services (MMS)	Rhamu	0712434258	Male	General enquiry	A beneficiary was testing the WFP hotline	I told them it is working and they can call during office time for complains and feedback.
2014-07-30 12:20:02	Testing the line	Consortium of Cooperating Partners (COCOP)	School Meals	Rhamu	072790303	Female	General enquiry	The beneficiaries were testing the hotline to find out if it is working.	I told them it is working and they can call during office time for complains and feedback.
2014-07-30 11:50:09	Selling of school food	Ministry of Education (MoE)	Mobile Money Services (MMS)	Rhamu	0722643786	Male	General enquiry	A man called the hotline saying the head teacher of Karboqole Primary school is selling the school food provided by WFP. Please investigate on the below case.	WFP staff are not allowed to visit the area due to insecurity and the SMPO Mandera East Mr.Yakub is investigating the case and the report will be shared by 17.10.2014.
2014-07-30 08:07:50	Food inquiry	Consortium of Cooperating Partners (COCOP)	General Food Distribution (GFD)	lafey	0706829233	Male	General enquiry	A beneficiary called requesting we should change Sorghum and replace with Maize.	I told him WFP is receiving the food  from the Donors and as of now they are only providing Sorghum. the sorghum can be cooked in different ways you can boil, you can grind it and make porridge out of it or even make chapati or mandazi out it.
2014-07-30 07:29:25	Monitoring	Action Aid	General Food Distribution (GFD)	lafey	0718385213	Male	General enquiry	A beneficiary from Lafey called the hotline requesting WFP to give them more support to the area by visiting the ares frequently.we you need to cove our zone too during monitoring.	I told the beneficiary we will provide support and in case they have issues they can still raise it with the hotline and it will be solved.
2014-07-25 09:18:47	Theft of GFD food	Consortium of Cooperating Partners (COCOP)	General Food Distribution (GFD)	Takaba	0717243458	Male	Fraud & Corruption	A man called the hotline from El Danaba FDP saying the food that was brought to the FDP for distribution was sold by the Tally clerk of COCOP to a trader who owns a shop in the town. The people noticed the 400 bags of sorghum, pulses and vegetable oil in the traders store and decided to lock the store with their own pad lock. They want WFP to come confirm this theft and do an investigation about this case.	1.	The date the allegation was escalated to the Wajir SO The case was shared with the Wajir SO team on Friday, 25/07/2014 and logged into CFM sugarCRM database for follow up. 2.	The nature of the initial allegation received through the hotline Theft of GFD Food - man called the hotline from El Danaba FDP saying the food that was brought to the FDP for distribution was sold by the Tally clerk of COCOP to a trader who owns a shop in the town. The people noticed the 400 bags of sorghum, pulses and vegetable oil in the traders store and decided to lock the store with their own pad lock. They want WFP to come confirm this theft and do an investigation about this case. 3.	When, how and by whom the allegation was investigated On Tuesday 29th August 2014, the Field Monitor and Logistics Assistant for Mandera operations made a visit to the FDP to confirm the case. It is important to note that the centre referred to as El-danaba is a border town between Wajir and Mandera Counties; a road at the center separates the 2 counties. Administratively, the Wajir side of the town is referred to as El-danaba whilst on the Mandera side it’s called Kofwole. On arrival at the center on the Mandera side (as the case involved the Mandera CP COCOP), the Field Monitor & Logistics Assistant made enquiries to random community members (mostly women) on any issue related to the relief food by our CP Cocop. ALL the community members approached (some were beneficiaries) responded that they were not aware of any food related skirmishes/issues at the center. They said that the COCOP food (as most of them referred it) was distributed over a week ago (they couldn’t specify the actual date) with no major issue. The team (Field Monitor & Logistics) further held a meeting with some members of the Relief Committee (RC), i.e. RC Chairman Mohammed Ibrahim and 2 RC members Adan Issac and Adhan Nur. The RC representatives present informed the investigating team that the latest food to the FDP was received/offloaded on or around 15.07.2014 (not certain of the date) and was kept in the usual store to await the arrival of COCOP representatives at a later date to supervise the distribution, as is usually the norm. The RC representatives further said that the COCOP officials came on or around 18.07.2014 (they were not certain of the date) to conduct the food distribution, and that the distribution went well upto the end. The waybill/delivery note was not available to ascertain the dates as they claimed that the COCOP officer had mistakenly returned with the waybill copy after the distribution. The RC further showed the team the store used to keep the commodities, which was empty. The area Assistant Chief Mr. Mohamed Nur was away and not available to comment on the matter. He could not be reached via his mobile line as it was switched off. On 31.07.2014 a follow up visit to the COCOP offices at Elwak was made. The officer in charge present Mr. Noorkey Musa who is also the CP Logistics Officer informed the team that beneficiary registration and food distribution at Eldanaba border town was a challenge due to the town playing host to community members of two counties. The team requested for the waybill that delivered food to Kofwole FDP and the waybill shown stated as follows:- 	The waybill number: 52250. 	Date of loading/dispatch on 12.07.2014 	Date of Arrival/receipt at the FDP (and signed by the RC) on 13.07.2014 	Food quantities loaded, and delivered intact at the FDP (signed by the RC) -	Cereals(sorghum)-149 bags of 50kgs -	Pulses – 30 bags of 50 kgs -	Veg.oil – 135 tins of 3.674kgs The CP Logistics Officer informed made enquiries (via telephone) from the COCOP Field Supervisor in charge of Mandera West/Takaba region Mr. Ibrahim who confirmed that the COCOP Field Monitor who supervised the actual distribution at Kofwole FDP was Mr. Abdalla. The WFP Field Monitor present called Mr. Abdalla via telephone and he said that food distribution for Kofwole FDP was done and completed on Thursday, 17th July 2014, and that the distribution was normal with all the food earlier delivered to the FDP intact and in good condition. He further said late last week (around 24th or 25th July) whilst conducting food distributions in the Takaba town area he received reports that there was a squabble over relief food at El-danaba but confirmed that it was food delivered for beneficiaries on the Wajir side. He also said that he did not carry the delivery note/waybill for Kofwole FDP probably the RC misplaced their copy. 4.	The findings of the investigation Upon further investigations, the WFP head of satellite office Wajir confirmed that food meant for El-danaba FDP in Wajir was distributed on 26.07.2014. On 01.08.2014, the WFP Field Monitor finally made contact via telephone with the whistle blower (after previous attempts as the mobile phone number was off network) to find out the current status of the issue. The whistle blower said that the case had finally been resolved and that distribution was carried out on 26.07.2014, with all the food quantities intact. The whistle blower further reported that it had been a misunderstanding on storage of the food commodities received as the usual store used to keep the food awaiting distribution was allegedly full, and the food had been offloaded at a private store belonging to a local trader in the town. 5.	The response agreed After discussions with WFP Head of Satellite Office in charge of Wajir and Mandera operations, it was agreed that for the next GFD distribution cycle (August 2014 distribution cycle), plans will be put in place such that both distributions (El-danaba & Kofwole FDPs) be carried out on the same day at the same time time. The beneficiary registers from both FDPs would also be keenly scrutinized by WFP field monitors to get rid of any double registration of beneficiaries on both sides. 6.	Further planned follow up During the planned joint distribution day (to be confirmed after August distribution plans are shared with HOSO), the visiting WFP team to find out the food storage facilities available, which should be secure, clean, reliable and agreed on by community members/beneficiaries, so as to avoid such misunderstandings in the future.  Follow up visit The HoSO Wajir/Mandera and FMA Wajir visited the FDP&#039;s (Eldanaba and Kofwole) during the following distribution, which WFP had organised in conjunction with CPs from both counties(wajir-ALDEF and Mandera-COCOP). It was noted that there were some beneficiaries who were registered in both Mandera and Wajir. Screening was done to weed out the double registrations. The food storage facilities were also inspected and the RC&#039;s from both sides were reminded of their responsibilities and strictly warned against food misappropriation.
2014-07-24 07:20:20	Targeting Issue	Consortium of Cooperating Partners (COCOP)	General Food Distribution (GFD)	Takaba	0729366936	Male	Targeting/Registration	A beneficiary called to inquire about the targeting procedures of  WFP	I told him the targeting exercise for Mandera was done in April and it is done once in every year. The community are given an opportunity to select the beneficiaries and the once most vulnerable are selected.
2014-07-23 12:04:53	School Meals- Fraud. Mandera Aridzone Pry School.	Ministry of Education (MoE)	School Meals	Mandera		Female	Fraud & Corruption	A parent called from Mandera Town, saying that , Manadera Arid zone sale the food. He said he was an eye witness when he saw, taxi been loaded with veg oil and maize. He said, he has two children in Mandera Arid zone primary and they have confirmed that, they have never seen food been cooked in their school.  The parent said that, Food was not meeting it is objective and he requestd from WFP to visit the schools when it is opend next term.  He said he got the hotline number from &quot; STAR FM&quot;.	
2014-07-22 12:37:03	school fees	Not Applicable	Not Applicable	mandera	0721449912	Male	Not applicable	A man called the hotline requesting we pay his school fees.	he was informed we are food aid agency and we only provide food but not school fees.
2014-07-22 11:44:47	stolen food	Consortium of Cooperating Partners (COCOP)	School Meals	0720282217	0720282217	Male	General enquiry	A man called from Mandera east saying that the following schools sale the food allocated for school feeding in the market. Mandera Arid  zone. Khalalio primary school Mandera boys town.	WFP staff are not allowed to visit the area due to insecurity and the SMPO Mandera East Mr.Yakub is investigating the case and the report will be shared by 17.10.2014.
2014-07-17 07:27:03	Food distribution.	Consortium of Cooperating Partners (COCOP)	General Food Distribution (GFD)	Banisa.	0708837041	Male	General enquiry	He wanted to know when is the next distribution of food in Banisa.	I have inquired from Field office, the distribution will resume next week.
2014-07-09 11:44:48	GFD Enquiry	Consortium of Cooperating Partners (COCOP)	General Food Distribution (GFD)	Awara	0711134666	Female	General enquiry	A beneficiary from Awara called the hotline informing us that no monitoring has taken place for the last three months in their area. They have problems and they should be visited.	The area could not be visited because of security situations. It will be checked when situation permits.
2014-06-20 08:36:10	Food distribution.	Consortium of Cooperating Partners (COCOP)	General Food Distribution (GFD)		0723771820	Female	General enquiry	she is inquiring why there is no food distribution in Mandera.	the food distribution is suspended because of security reason.
2014-06-16 09:09:10	Food distribution.	Consortium of Cooperating Partners (COCOP)	General Food Distribution (GFD)	Takaba.	0720426957	Female	General enquiry	The caller wants to know when will be the distribution of food will take place.	Currently the food distribution is suspended in this area until further notice due to security problems. We shall advise you once the situation permits.
2014-06-11 06:49:27	Registration.	Consortium of Cooperating Partners (COCOP)	General Food Distribution (GFD)	Arabia	0712816899	Male	General enquiry	The caller is a resident of Arabia- Mandera. He said he is a poor man. and he wanted to be registered in WFP GFD programmes.	COCOP is the leading agency in arabia- Mandera. Please check with Relief Committee during the next re-targeting.
2014-06-11 06:43:32	Assistance from WFP	Not Applicable	Not Applicable	Mandera Town	0729159838	Female	Not applicable	The caller is a student and she is looking for fees.	WFP does not give school fees. Kindly try other avenues. thanks
2014-06-11 06:10:21	Follow up Of Case reported in CFM.	Consortium of Cooperating Partners (COCOP)	General Food Distribution (GFD)		0703714537	Female	General enquiry	The caller was following up on the case he reported last month about Barwaqo Primary School, Olla Division, Mandera County.	Your case was noted and it was shared with Country Programme Team and COCOP. Currently the team can not Visit the School due to insecurity in Mandera. However when situation permits it will be visited and the case will be investigated.
2014-06-11 05:55:51	Food distribution.	Consortium of Cooperating Partners (COCOP)	General Food Distribution (GFD)	Takaba.	0729366936	Male	General enquiry	The caller is the chairman of Takaba and wanted to know why there is delay in food distribution in Takaba Mandera. He said People are dying of hunger.	I have checked with Mandera Team. Distribution is Halt because of insecurity in Mandera.
2014-06-11 05:49:53	Food distribution.	Consortium of Cooperating Partners (COCOP)	General Food Distribution (GFD)	Rhamu	0716052791	Female	General enquiry	The caller wanted to know why there is delay in Food distribution.	The delay is caused by Insecurity in Mandera.
2014-06-11 05:48:08	Food distribution.	Consortium of Cooperating Partners (COCOP)	General Food Distribution (GFD)	Sala Mandera	0722479325	Female	General enquiry	The caller wanted to know why there is delay in Food distribution.	The delay  was caused by insecurity in Mandera. You will be notified when the distribution resumes.
2014-06-05 12:27:52	Food distribution.	Consortium of Cooperating Partners (COCOP)	General Food Distribution (GFD)	Rhamu	0706401770	Female	General enquiry	she wants to know the next food distribution and why there is a lot of delays.	i have checked with program team. Food could not be distributed because of insecurity issues.
2014-06-05 12:25:46	Assistance from WFP	Not Applicable	Not Applicable	Mandera	0712797443	Female	Not applicable	The caller she is called Fatuma and she is an orphan with four children. she is looking for assistance from WFP.	Kindly check with Relief committee and COCOP who are the leading agency in Mandera for more registration and re-targeting.
2014-06-05 12:20:41	Food distribution.	Consortium of Cooperating Partners (COCOP)	General Food Distribution (GFD)	Takaba.	0723137687	Female	General enquiry	The caller is saying that food is not distributed and he wanted to know when will be the next food distribution.	i have checked with Mandera Team. There is insecurity and inter clan fighting and food could not be delivered in this area.
2014-06-05 12:09:46	Sorghum.	Consortium of Cooperating Partners (COCOP)	General Food Distribution (GFD)	Rhamu	0715125218	Female	General enquiry	He wants WFP to change the sorghum to Maize.	•	Sorghum is a lot less expensive than alternative cereals, like maize or rice. So more people can benefit from food assistance if we distribute sorghum at the recommended ration scale than if we distribute maize or rice. Kindly bear with us.
2014-06-05 12:07:54	Assistance from WFP	Not Applicable	Not Applicable	Rhamu	0729258813	Female	Not applicable	The caller said that, he is a refugee currently based in Rhamu and he is requesting if  WFP can help him in registering him in any of the WFP programs.	i have advised him WFP does not do refugee registration and for in kind food to check with RCs and COCOP in Rhamu.
2014-06-05 06:35:34	Food distribution.	Consortium of Cooperating Partners (COCOP)	General Food Distribution (GFD)	El-wak	0701510937	Female	Technical Issues	A beneficiary from El-wak, she wants to know the next distribution of food.	I have forwarded her message to Programme. she will be advised the next distribution of food.
2014-06-05 06:33:31	Card Inquiry	Islamic Relief Council - IFO	Fresh Food Vouchers (FFV)	IFO	0721103304	Female	General enquiry	The caller wanted to know if her card is ready for collection.	i have checked her name and document number from the FFV database, she is not a genuine beneficiary. i have advised her to go for registration.
2014-06-05 06:01:56	Food distribution & Food storage in NCPB Mandera.	Consortium of Cooperating Partners (COCOP)	General Food Distribution (GFD)	Bulla Bosnia - Mandera.	0722161419	Female	General enquiry	A beneficiary called from Bulla Bosnia – Mandera, and he wanted to know the next distribution of WFP Food. He said he resides next to WFP warehouse (NCPB Mandera) and he does not know why food is not distributed yet the stores are full to capacity. He said the situation is getting out of hand and he will mobilize the communities to loot the WFP warehouses in Mandera (NCPB) if food is not distributed on time. This sounds like a threatening  message, Kindly check and advise. 	Dear All,  It has been difficult to give realistic time frames due to the very fluid security situation, there was a peace meeting yesterday at the County Commissioner’s office with county leadership and community leaders and we hope relative calm will prevail. If this happens then hopefully distributions will be completed in the entire county by June 15th. Meanwhile distributions are ongoing from Elwak EDP where there is relative calm.  We have also reported the threat to the OCPD without giving details of the caller and they are on high alert.  Enjoy your weekend.  Rgds,  Kipsang 
2014-06-05 05:43:34	Sorghum.	Consortium of Cooperating Partners (COCOP)	General Food Distribution (GFD)		0718754759	Female	General enquiry	The caller is asking if sorghum can be changed with Maize or Rice.	WFP acknowledges that sorghum is not preferred by all beneficiaries, and we do advocate on behalf of beneficiaries to our donors for more diverse cereals. But in the end, to meet immediate food needs and alleviate hunger in a timely manner WFP distributes the food that donor countries provide. If donors provide rice, then we can distribute rice. If they provide sorghum, then we distribute sorghum.  
2014-06-03 07:59:21	Food distribution.	Consortium of Cooperating Partners (COCOP)	General Food Distribution (GFD)	Rhamu	0701508779	Female	General enquiry	The caller is saying they have not received food for the last two Month. He wanted to know when is the next distribution of food will take place in Towfiq FDP- Rhamu Mandera County. Kindly call and advise him.	I have checked with Mandera SO, distribution was on halted because of security issues.  she will be advised when distribution resumes.
2014-06-03 07:54:56	Sorghum.	Consortium of Cooperating Partners (COCOP)	General Food Distribution (GFD)	Mandera	0729496309	Male	General enquiry	The beneficiary requested if the current cereal they are receiving can be changed with either maize or rice. They have however appreciated WFP for providing food aid for a long time. They are also very grateful for the roll out of the Hotline number. 	WFP acknowledges that sorghum is not preferred by all beneficiaries, and we do advocate on behalf of beneficiaries to our donors for more diverse cereals. But in the end, to meet immediate food needs and alleviate hunger in a timely manner WFP distributes the food that donor countries provide. If donors provide rice, then we can distribute rice. If they provide sorghum, then we distribute sorghum.
2014-06-03 07:53:30	Sorghum.	Consortium of Cooperating Partners (COCOP)	General Food Distribution (GFD)	Arabia	0723137687	Male	General enquiry	The caller requested from WFP if the sorghum can be substituted with Maize. He said Arabia water is salty and when is cooked with sorghum, the taste of the meal is changed. They have however appreciated WFP for providing food aid for a long time. They are also very grateful for the roll out of the Hotline number. 	Sorghum is a lot less expensive than alternative cereals, like maize or rice. So more people can benefit from food assistance if we distribute sorghum at the recommended ration scale than if we distribute maize or rice.
2014-05-28 12:27:19	Registration.	Consortium of Cooperating Partners (COCOP)	General Food Distribution (GFD)	Bulla Mpya- Mandera	0720912142	Female	Targeting/Registration	She is resident of Bulla mpya - Mandera County and she is requested from WFP if she can be registered in the GFD program.	kindly check with Cocop who are the leading agency in Mandera.
2014-05-28 12:22:57	Registration.	Consortium of Cooperating Partners (COCOP)	Not Applicable	Mandera	0712797443	Male	Not applicable	The caller requested from WFP if she can be registered  with one of the programes.	i have advised to check with Cocop.
2014-05-28 12:21:05	Sorghum.	Consortium of Cooperating Partners (COCOP)	General Food Distribution (GFD)		0720410778	Male	General enquiry	He is requesting if the current food can be changed with More stable food like Maize and rice.	WFP acknowledges that sorghum is not preferred by all beneficiaries, and we do advocate on behalf of beneficiaries to our donors for more diverse cereals. But in the end, to meet immediate food needs and alleviate hunger in a timely manner WFP distributes the food that donor countries provide. If donors provide rice, then we can distribute rice. If they provide sorghum, then we distribute sorghum.
2014-05-28 07:11:23	Food distribution.	Consortium of Cooperating Partners (COCOP)	General Food Distribution (GFD)	Gari -mandera	0729355106	Female	General enquiry	The caller is the chairman of Gari FDP. He said, they have not received Food for the last 2 month and he was asking when will the distribution of food will take place again. He said people are dying of hunger and he will appreciate if food is given soonest. Kindly advice him.	food is currently received at the EDP. distribution will be next month.
2014-05-27 07:47:05	Food to Cash	Consortium of Cooperating Partners (COCOP)	General Food Distribution (GFD)	Farey - Rhamu	0727500543	Male	General enquiry	The caller is the chairman of Farey Location - Rhamu. He is saying the drought has increased and requested from WFP if they can provide cash instead of Food.	i have advised him your message is noted and it will be forwarded to the management for considerations.
2014-05-27 07:32:47	Food distribution.	Consortium of Cooperating Partners (COCOP)	General Food Distribution (GFD)	Banisa.	0710362095	Female	General enquiry	He is saying the people are dying of hunger. Currently there have not received food. He is asking when will be the next distribution.	I have advised her after confirming the distribution period from the Programme Team. food is currently received at the EDP, distribution will be next month.
2014-05-27 07:22:37	Looking For job.	Not Applicable	Not Applicable		0711344560	Female	Not applicable	The caller she is looking for job. she studied Community Developments.	I have advised her currently there is no opening in WFP, But in future to check newspaper for more and apply.
2014-05-27 07:09:11	School fees.	Not Applicable	Not Applicable	Mandera	0721449912	Male	Not applicable	He said he is an Orphan and he has lost both his parents. He Finished Secondary school and he was looking for college fees. He requested from WFP if they can help him in paying his college fees.	WFP does not pay school fees. Kindly try other avenues like CDF and County Bursary funds. He was appreciative.
2014-05-27 07:06:10	Looking For job.	Consortium of Cooperating Partners (COCOP)	Not Applicable	Mandera	0722581874	Female	Not applicable	The Caller by the name: Ambiya HajjI Salat. she is calling from Mandera. She is looking for job. she has done Diploma in Nutrition.  	I have advised currently there is no vacancies at WFP but  she can check WFP website and Newspapers for future vacancies.
2014-05-22 12:57:23	School Meals	Consortium of Cooperating Partners (COCOP)	General Food Distribution (GFD)	Arabia	0712330962	Male	General enquiry	Hakalow Primary school head teacher called the Hotline. He said the school did not receive  food this term and he wanted to know what was the problem.	I have checked with ANNA  GUTHIA from Country Programme, and she told me according to the DEO Mandera there will be a delay of two weeks.
2014-05-19 12:44:33	Plumby- Mandera District  Hospital.	Consortium of Cooperating Partners (COCOP)	Not Applicable	Mandera	0720700031	Male	Not applicable	A man by the name Mohamed called the Hotline and said that, he works in Mandera District Hospital and he has clips of hospital staff stealing the Plumpy nuts. He said the Biscuits are meant for the Malnourished Children but always end up in the Market. He requested from WFP if the matter can be investigated.	I have checked with Latome From FFA programme and he said the the Plumpy given to the Mandera District Hospital were from UNICEF and not WFP.
2014-05-16 07:44:39	Food distribution.	Consortium of Cooperating Partners (COCOP)	General Food Distribution (GFD)	Niboy Mandera	0704112660	Female	General enquiry	The Caller is a relief Committee in Nobay - Mandera and he wanted to Know when will be the next distribution of Food cycle.	I have advised appropriately  after confirming the distribution from the Programme team.
2014-05-16 07:26:20	Sorghum.	Consortium of Cooperating Partners (COCOP)	General Food Distribution (GFD)		0714204186	Male	General enquiry	The beneficiary wanted to know if the sorghum can be changed. He acknowledged the food they are receiving  from WFP as very helpful and he was grateful.	Although sorghum is not preferred by Mandera residents now, tastes can change, and in the case of sorghum, households are encouraged to learn to utilize it. In other countries, sorghum is a preferred cereal, and sorghum is just as nutritious as maize and rice. 
2014-05-16 07:23:04	Sorghum.	Consortium of Cooperating Partners (COCOP)	General Food Distribution (GFD)		0706397842	Male	General enquiry	He requested from WFP, if currently sorghum they are receiving can be changed with More stable food like Maize and Rice.	WFP acknowledges that sorghum is not preferred by all beneficiaries, and we do advocate on behalf of beneficiaries to our donors for more diverse cereals. But in the end, to meet immediate food needs and alleviate hunger in a timely manner WFP distributes the food that donor countries provide. If donors provide rice, then we can distribute rice. If they provide sorghum, then we distribute sorghum. 
2014-05-15 06:03:37	Sorghum.	Consortium of Cooperating Partners (COCOP)	General Food Distribution (GFD)	Mandera	0775778987	Male	General enquiry	The caller requested from WFP if the current sorghum they are receiving can be substituted with Maize or Rice.	WFP acknowledges that sorghum is not preferred by all beneficiaries, and we do advocate on behalf of beneficiaries to our donors for more diverse cereals. But in the end, to meet immediate food needs and alleviate hunger in a timely manner WFP distributes the food that donor countries provide. If donors provide rice, then we can distribute rice. If they provide sorghum, then we distribute sorghum.
2014-05-12 12:38:48	Relief committee- Harer Hosle,	Consortium of Cooperating Partners (COCOP)	General Food Distribution (GFD)	Mandera	0712855832	Male	General enquiry	The caller is beneficiary in Harer Hosle FDP- Arabia Mandera. He is complaining about the Relief Committee. He is requesting if the current RC can be changed with a new members. He noted the relief committee are biased in terms on Food distribution. 	This FDP is located along the border with Somalia and is an area where WFP staff are not allowed to visit due to insecurity. The CP staff in charge of the area was duly notifed of the complaint for follow up. The CP Field Monitor staff visited the area and carried out RC training on the members with an emphasis on the laid out duties of the RC. A fresh election of a new RC will be carried out in late October/early Novemeber 2014 during re-targetting.
2014-05-08 08:59:29	School Meals- Mandera Boys TownPrimary school	Consortium of Cooperating Partners (COCOP)	General Food Distribution (GFD)	Mandera Town	0719779884	Male	Fraud & Corruption	The caller is a Student from Mandera Boys Town primary School. He is saying the Food that is cooked does not have Veg oil and yet WFP provides the oil. He wanted to know why is Veg oil not added to the Food that is cooked. He said although the school is opened this week, The problem has been existing even the previous terms. He requested from WFP if the matter can be investigated because he suspects the Veg oil find it is way to the Market.	The school is located within Mandera Town where WFP staff have no access to visit due to insecurity in the area. I contacted the Mandera East & Lafey SMPO Mr. Yakub to step in and visit the school and investigate the allegations. The SMPO reported back and said that on inspecting the SMP 6 forms Veg.oil is reported as cooked everyday and it was difficult to ascertain for sure whether veg.oil was actually included in the diet. On checking the school food store, veg.oil stocks were still available in sufficient quantities. The SMPO promised to keep a close watch on the school and make an impromptu follow up in the course of Term III 2014.
2014-05-08 08:49:48	Food distribution.	Consortium of Cooperating Partners (COCOP)	General Food Distribution (GFD)		0725239223	Female	General enquiry	the caller is a Relief Committee in Takaba and wanted to know when is the next cycle of food distribution.	I have shared the information with CP and they said they will call him.
2014-05-08 08:42:26	Re targeting.	Consortium of Cooperating Partners (COCOP)	General Food Distribution (GFD)	Marothile mandera	0724844175	Male	General enquiry	The caller said that, if during the re targeting the number of beneficiaries can be increased in hi s area.	I have explained to him all the procedures of increasing the beneficiaries. He was grateful.
2014-05-07 08:25:59	Sorghum.	Consortium of Cooperating Partners (COCOP)	General Food Distribution (GFD)	Mandera	0706298341	Female	General enquiry	She requested if sorghum can be changed to more stable food.	WFP acknowledges that sorghum is not preferred by all beneficiaries, and we do advocate on behalf of beneficiaries to our donors for more diverse cereals. But in the end, to meet immediate food needs and alleviate hunger in a timely manner WFP distributes the food that donor countries provide. If donors provide rice, then we can distribute rice. If they provide sorghum, then we distribute sorghum.
2014-05-07 08:22:47	Sorghum.	Consortium of Cooperating Partners (COCOP)	General Food Distribution (GFD)	Kutulo	0724435670	Male	General enquiry	The beneficiary called the Hotline and requested if the current food ration can be changed to Maize.	WFP acknowledges that sorghum is not preferred by all beneficiaries, and we do advocate on behalf of beneficiaries to our donors for more diverse cereals. But in the end, to meet immediate food needs and alleviate hunger in a timely manner WFP distributes the food that donor countries provide. If donors provide rice, then we can distribute rice. If they provide sorghum, then we distribute sorghum.
2014-05-07 08:17:21	Sorghum.	Consortium of Cooperating Partners (COCOP)	General Food Distribution (GFD)		0705445661	Male	General enquiry	The caller wants if  WFP can substitute the sorghum with Maize.	WFP acknowledges that sorghum is not preferred by all beneficiaries, and we do advocate on behalf of beneficiaries to our donors for more diverse cereals. But in the end, to meet immediate food needs and alleviate hunger in a timely manner WFP distributes the food that donor countries provide. If donors provide rice, then we can distribute rice. If they provide sorghum, then we distribute sorghum.
2014-05-06 06:55:44	Sorghum.	Consortium of Cooperating Partners (COCOP)	General Food Distribution (GFD)	Lafey	0707733479	Female	General enquiry	The beneficiary called from Lafey - Mandera. he Wants if  WFP can change the sorghum to more stable food.	Although sorghum is not preferred by Mandera residents now, tastes can change, and in the case of sorghum, households are encouraged to learn to utilize it. In other countries, sorghum is a preferred cereal, and sorghum is just as nutritious as maize and rice.
2014-05-06 06:51:01	Sorghum.	Consortium of Cooperating Partners (COCOP)	General Food Distribution (GFD)	Arabia	0721592915	Female	General enquiry	The caller requested if WFP can change the Sorghum with Maize or Rice.	Although sorghum is not preferred by Mandera residents now, tastes can change, and in the case of sorghum, households are encouraged to learn to utilize it. In other countries, sorghum is a preferred cereal, and sorghum is just as nutritious as maize and rice.
2014-05-06 06:48:35	Change of Sorghum to Maize	Consortium of Cooperating Partners (COCOP)	General Food Distribution (GFD)	El-wak	0722868939	Female	General enquiry	He requested change of Sorghum to Rice.	Although sorghum is not preferred by Mandera residents now, tastes can change, and in the case of sorghum, households are encouraged to learn to utilize it. In other countries, sorghum is a preferred cereal, and sorghum is just as nutritious as maize and rice.
2014-05-06 06:47:08	Registration.	Consortium of Cooperating Partners (COCOP)	General Food Distribution (GFD)	Mandera	0702955616	Female	Targeting/Registration	He requested if he can be considered the next re targeting.	He was advised him to check with Relief Committee and COCOP.
2014-05-06 06:44:59	Change of Sorghum to Maize	Consortium of Cooperating Partners (COCOP)	General Food Distribution (GFD)	Arabia	0729204000	Female	General enquiry	The caller requested if WFP can substitute Sorghum with Maize.	WFP acknowledges that sorghum is not preferred by all beneficiaries, and we do advocate on behalf of beneficiaries to our donors for more diverse cereals. But in the end, to meet immediate food needs and alleviate hunger in a timely manner WFP distributes the food that donor countries provide. If donors provide rice, then we can distribute rice. If they provide sorghum, then we distribute sorghum. 
2014-04-30 11:59:35	Re targeting./ food increase.	Consortium of Cooperating Partners (COCOP)	General Food Distribution (GFD)		0712016246	Female	Targeting/Registration	The caller wants if the current allocation of Food can be increased.	Currently WFP has only that for distribution,
2014-04-30 11:55:46	Appreciation	Consortium of Cooperating Partners (COCOP)	General Food Distribution (GFD)		0710925240	Female	General enquiry	The caller appreciated WFP for roll out of the Hotline.	Message noted and acknowledged
2014-04-30 11:54:28	Sorghum.	Consortium of Cooperating Partners (COCOP)	General Food Distribution (GFD)	Mandera	0707683333	Male	General enquiry	The beneficiary called the hotline and wanted to know if sorghum can be substituted with maize.	WFP acknowledges that sorghum is not preferred by all beneficiaries, and we do advocate on behalf of beneficiaries to our donors for more diverse cereals. But in the end, to meet immediate food needs and alleviate hunger in a timely manner WFP distributes the food that donor countries provide. If donors provide rice, then we can distribute rice. If they provide sorghum, then we distribute sorghum.
2014-04-30 11:52:44	Sorghum.	Consortium of Cooperating Partners (COCOP)	General Food Distribution (GFD)		0706638993	Male	General enquiry	The caller requested  from WFP if they can substitute the sorghum with Maize.	WFP acknowledges that sorghum is not preferred by all beneficiaries, and we do advocate on behalf of beneficiaries to our donors for more diverse cereals. But in the end, to meet immediate food needs and alleviate hunger in a timely manner WFP distributes the food that donor countries provide. If donors provide rice, then we can distribute rice. If they provide sorghum, then we distribute sorghum.
2014-04-30 11:51:13	change of Sorghum to More stable Food.	Consortium of Cooperating Partners (COCOP)	General Food Distribution (GFD)		0720521476	Male	General enquiry	The caller wants if sorghum can be substituted with Maize or Rice or Flour. He  was also grateful for the roll out Hotline in Mandera.	WFP acknowledges that sorghum is not preferred by all beneficiaries, and we do advocate on behalf of beneficiaries to our donors for more diverse cereals. But in the end, to meet immediate food needs and alleviate hunger in a timely manner WFP distributes the food that donor countries provide. If donors provide rice, then we can distribute rice. If they provide sorghum, then we distribute sorghum.
2014-04-30 11:47:29	Change of Sorghum to Maize	Consortium of Cooperating Partners (COCOP)	General Food Distribution (GFD)		0710551477	Male	General enquiry	The caller wants if  WFP can change the sorghum to more stable food.	WFP acknowledges that sorghum is not preferred by all beneficiaries, and we do advocate on behalf of beneficiaries to our donors for more diverse cereals. But in the end, to meet immediate food needs and alleviate hunger in a timely manner WFP distributes the food that donor countries provide. If donors provide rice, then we can distribute rice. If they provide sorghum, then we distribute sorghum.
2014-04-30 11:44:15	Appreciation	Consortium of Cooperating Partners (COCOP)	General Food Distribution (GFD)		0729980145	Male	General enquiry	The caller appreciated WFP for roll out of Hotline in Mandera. He was grateful and said he will make use of the platform to air problems/ complains and suggestions.	Message noted and acknowledged.
2014-04-30 11:42:01	Change of Sorghum to Maize	Consortium of Cooperating Partners (COCOP)	General Food Distribution (GFD)		0705225196	Female	General enquiry	The caller wants if the current food they are receiving can be changed with Maize.	WFP acknowledges that sorghum is not preferred by all beneficiaries, and we do advocate on behalf of beneficiaries to our donors for more diverse cereals. But in the end, to meet immediate food needs and alleviate hunger in a timely manner WFP distributes the food that donor countries provide. If donors provide rice, then we can distribute rice. If they provide sorghum, then we distribute sorghum.
2014-04-30 11:39:18	change of Sorghum to More stable Food.	Consortium of Cooperating Partners (COCOP)	General Food Distribution (GFD)	Mandera	0726220447	Female	General enquiry	The caller wants sorghum to be substituted with Maize. He was also grateful for the roll out of the hotline.	Sorghum is a lot less expensive than alternative cereals, like maize or rice. So more people can benefit from food assistance if we distribute sorghum at the recommended ration scale than if we distribute maize or rice. 
2014-04-30 11:37:20	change of Sorghum to More stable Food.	Consortium of Cooperating Partners (COCOP)	General Food Distribution (GFD)		0701885054	Male	General enquiry	He requested if WFP can change the current ratio ( sorghum)  they are receiving to maize	Sorghum is a lot less expensive than alternative cereals, like maize or rice. So more people can benefit from food assistance if we distribute sorghum at the recommended ration scale than if we distribute maize or rice. 
2014-04-30 11:35:48	Change of Sorghum to Maize	Consortium of Cooperating Partners (COCOP)	General Food Distribution (GFD)	Kutulo	0712503824	Female	General enquiry	he requested if Sorghum can be substituted with rice or Flour	Sorghum is a lot less expensive than alternative cereals, like maize or rice. So more people can benefit from food assistance if we distribute sorghum at the recommended ration scale than if we distribute maize or rice. 
2014-04-30 11:34:17	Change of Sorghum to Maize	Consortium of Cooperating Partners (COCOP)	General Food Distribution (GFD)	Mandera	0718150072	Female	General enquiry	The caller requested if  WFP can change the sorghum they are currently receiving to more stable food like Maize, rice and Flour. He however appreciated WFP for rolling out the Hotline to Mandera.	Sorghum is a lot less expensive than alternative cereals, like maize or rice. So more people can benefit from food assistance if we distribute sorghum at the recommended ration scale than if we distribute maize or rice. 
2014-04-30 09:26:41	School Meals- Fraud.	Consortium of Cooperating Partners (COCOP)	General Food Distribution (GFD)	Olla- Mandera North	0725036661	Male	Fraud & Corruption	Chief of Brawaqo location, olla division, Mandera North, Called the hotline saying that ; Barwaqo Primary School has only 50 Pupils but the school management has registered over 200 pupils to get food from WFP.  He said the extra food is sold in the market. He requested if WFP can investigate the matter or visit the school when it is opened this term. He also noted that,  food is not cooked for the pupils though it is provided by WFP.  His contacts are: 0725036661.  	Mohamed, Thanks for the heads up and glad to know that the hot line is working in these areas.  Simon, It will be good to visit the school when schools open next week and ascertain the correct enrolment figure. Did you undertake enrolment verification for the schools under the SMP in Mandera County? Please ensure that the DEO’s office allocates & supplies correct quantities of food based on actual enrolled children.  What about Wajir County, was verification undertaken and did the sub-office share the findings with us? – I guess this is Ikeny’s area.  Regards, alex 
2014-04-30 07:22:30	Malnourished cases in Kutulo.	Consortium of Cooperating Partners (COCOP)	General Food Distribution (GFD)	Kutulo	0723325671	Female	General enquiry	The caller is saying their children is malnourished and requesting from WFP if they can help them in evading the menace.	He was advised by ayan.
2014-04-30 07:11:50	Change of Sorghum to Maize	Consortium of Cooperating Partners (COCOP)	General Food Distribution (GFD)	Bulla Mpya- Mandera	0722395331	Female	General enquiry	The caller wants if  WFP can change the current sorghum they are receiving with More staple food.	WFP acknowledges that sorghum is not preferred by all beneficiaries, and we do advocate on behalf of beneficiaries to our donors for more diverse cereals. But in the end, to meet immediate food needs and alleviate hunger in a timely manner WFP distributes the food that donor countries provide. If donors provide rice, then we can distribute rice. If they provide sorghum, then we distribute sorghum. 
2014-04-30 07:09:58	Change of Sorghum to Maize	Consortium of Cooperating Partners (COCOP)	General Food Distribution (GFD)	Mandera	0712442666	Female	General enquiry	The caller from Mandera, wants if Sorghum can be substituted with Maize.	WFP acknowledges that sorghum is not preferred by all beneficiaries, and we do advocate on behalf of beneficiaries to our donors for more diverse cereals. But in the end, to meet immediate food needs and alleviate hunger in a timely manner WFP distributes the food that donor countries provide. If donors provide rice, then we can distribute rice. If they provide sorghum, then we distribute sorghum. 
2014-04-28 11:57:22	Change of Sorghum to Maize	Consortium of Cooperating Partners (COCOP)	General Food Distribution (GFD)	Mandera	0721315634	Female	General enquiry	The caller wanted to know if WFP can substitute the sorghum with maize.	The financial crisis, and high food and fuel prices, means that there are less and less resources for food assistance globally, and this is true also for Kenya. There is only a finite amount of resources available to feed hungry Kenyans. 
2014-04-28 11:55:16	Employment.	Consortium of Cooperating Partners (COCOP)	Not Applicable	Mandera	0722381767	Female	Not applicable	The caller wanted to know if  WFP is currently employing new staff .	I told her currently WFP is not Employing new staff and any new Job will  advertised,
2014-04-25 07:33:39	Change of Sorghum to Maize	Consortium of Cooperating Partners (COCOP)	General Food Distribution (GFD)	Mandera	0702117734	Female	General enquiry	The beneficiary wants the current food ( sorghum|) they are receiving to be changed with more stable food.	WFP acknowledges that sorghum is not preferred by all beneficiaries, and we do advocate on behalf of beneficiaries to our donors for more diverse cereals. But in the end, to meet immediate food needs and alleviate hunger in a timely manner WFP distributes the food that donor countries provide. If donors provide rice, then we can distribute rice. If they provide sorghum, then we distribute sorghum. 
2014-04-23 09:10:52	School Meals - Rhamu	Consortium of Cooperating Partners (COCOP)	General Food Distribution (GFD)	Rhamu	0716832288	Female	General enquiry	The beneficiary is  a teacher at Rhamu Dimtu and he is requesting if his school can be provided with or enrolled in school meals program.	I have explained all the procedures  and advised him to contact to COCOP offices for further information.
2014-04-22 12:00:59	Change of Sorghum to Maize	Consortium of Cooperating Partners (COCOP)	General Food Distribution (GFD)	Lafey	0713188560	Female	General enquiry	The caller is requesting if WFP can change the sorghum to more stable food like maize, he said that, the water for Arabia and Lafey is salty and therefore when cooked with Sorghum the taste of the food is changed and it normally affects the health of the children. They said it causes stomach ache and it has led many children in the area to have sever diarrhea.	WFP acknowledges that sorghum is not preferred by all beneficiaries, and we do advocate on behalf of beneficiaries to our donors for more diverse cereals. But in the end, to meet immediate food needs and alleviate hunger in a timely manner WFP distributes the food that donor countries provide. If donors provide rice, then we can distribute rice. If they provide sorghum, then we distribute sorghum.
2014-04-22 12:00:01	Change of Sorghum to Maize	Consortium of Cooperating Partners (COCOP)	General Food Distribution (GFD)	Ashabito	0707718887	Male	General enquiry	The beneficiary requested if the current cereal they are receiving can be changed with either maize or rice. They have however appreciated WFP for providing food aid for along time. They are also very grateful for the roll out of the Hotline number. 	WFP acknowledges that sorghum is not preferred by all beneficiaries, and we do advocate on behalf of beneficiaries to our donors for more diverse cereals. But in the end, to meet immediate food needs and alleviate hunger in a timely manner WFP distributes the food that donor countries provide. If donors provide rice, then we can distribute rice. If they provide sorghum, then we distribute sorghum.
2014-04-22 11:50:11	change of Sorghum to More stable Food.	Consortium of Cooperating Partners (COCOP)	General Food Distribution (GFD)	El-wak	0724348379	Male	General enquiry	The beneficiary requested if the current cereal they are receiving can be changed with either maize or rice. They have however appreciated WFP for providing food aid for a long time. They are also very grateful for the roll out of the Hotline number. 	WFP acknowledges that sorghum is not preferred by all beneficiaries, and we do advocate on behalf of beneficiaries to our donors for more diverse cereals. But in the end, to meet immediate food needs and alleviate hunger in a timely manner WFP distributes the food that donor countries provide. If donors provide rice, then we can distribute rice. If they provide sorghum, then we distribute sorghum.
2014-04-22 11:46:33	Change of Sorghum to Maize	Consortium of Cooperating Partners (COCOP)	General Food Distribution (GFD)	Arabia	0713435957	Female	Technical Issues	The caller is requesting if WFP can change the sorghum to more stable food like maize, he said that, the water for Arabia and Lafey is salty and therefore when cooked with Sorghum the taste of the food is changed and it normally affects the health of the children. They said it causes stomach ache and it has led many children in the area to have sever diarrhea 	WFP acknowledges that sorghum is not preferred by all beneficiaries, and we do advocate on behalf of beneficiaries to our donors for more diverse cereals. But in the end, to meet immediate food needs and alleviate hunger in a timely manner WFP distributes the food that donor countries provide. If donors provide rice, then we can distribute rice. If they provide sorghum, then we distribute sorghum.
2014-04-22 11:45:42	Change of Sorghum to Maize	Consortium of Cooperating Partners (COCOP)	General Food Distribution (GFD)	Bamboo	0727679727	Female	General enquiry	The beneficiary requested if the current cereal they are receiving can be changed with either maize or rice. They have however appreciated WFP for providing food aid for along time. They are also very grateful for the roll out of the Hotline number. 	WFP acknowledges that sorghum is not preferred by all beneficiaries, and we do advocate on behalf of beneficiaries to our donors for more diverse cereals. But in the end, to meet immediate food needs and alleviate hunger in a timely manner WFP distributes the food that donor countries provide. If donors provide rice, then we can distribute rice. If they provide sorghum, then we distribute sorghum.
2014-04-22 11:44:39	Increase food Ratio	Consortium of Cooperating Partners (COCOP)	General Food Distribution (GFD)	Lafey	0718706383	Female	General enquiry	The caller requested from WFP, if the current food basket/ allocation can be increased.	i have advised the caller that, that is the standard ration that every beneficiary is given.
2014-04-22 11:43:03	Change of Sorghum to Maize	Consortium of Cooperating Partners (COCOP)	General Food Distribution (GFD)	Ashabito	0710463346	Female	General enquiry	The beneficiary requested if the current cereal they are receiving can be changed with either maize . Thanks	WFP acknowledges that sorghum is not preferred by all beneficiaries, and we do advocate on behalf of beneficiaries to our donors for more diverse cereals. But in the end, to meet immediate food needs and alleviate hunger in a timely manner WFP distributes the food that donor countries provide. If donors provide rice, then we can distribute rice. If they provide sorghum, then we distribute sorghum.
2014-04-22 11:42:00	Change of Sorghum to Maize	Consortium of Cooperating Partners (COCOP)	General Food Distribution (GFD)	libahyaha	0717642224	Female	General enquiry	The beneficiary requested if the current cereal they are receiving can be changed with either maize or rice. 	WFP acknowledges that sorghum is not preferred by all beneficiaries, and we do advocate on behalf of beneficiaries to our donors for more diverse cereals. But in the end, to meet immediate food needs and alleviate hunger in a timely manner WFP distributes the food that donor countries provide. If donors provide rice, then we can distribute rice. If they provide sorghum, then we distribute sorghum.
2014-04-22 11:40:45	Change of Sorghum to Maize	Consortium of Cooperating Partners (COCOP)	General Food Distribution (GFD)	Arabia	0712330966	Male	General enquiry	The beneficiary requested if the current cereal they are receiving can be changed with either maize or rice. They have however appreciated WFP for providing food aid for along time. They are also very grateful for the roll out of the Hotline number. 	WFP acknowledges that sorghum is not preferred by all beneficiaries, and we do advocate on behalf of beneficiaries to our donors for more diverse cereals. But in the end, to meet immediate food needs and alleviate hunger in a timely manner WFP distributes the food that donor countries provide. If donors provide rice, then we can distribute rice. If they provide sorghum, then we distribute sorghum.
2014-04-22 11:37:53	Change of Sorghum to Maize	Consortium of Cooperating Partners (COCOP)	General Food Distribution (GFD)	Rhamu	0723892177	Male	General enquiry	The beneficiary requested if the current cereal they are receiving can be changed with either maize or rice. They have however appreciated WFP for providing food aid for along time. They are also very grateful for the roll out of the Hotline number. 	WFP acknowledges that sorghum is not preferred by all beneficiaries, and we do advocate on behalf of beneficiaries to our donors for more diverse cereals. But in the end, to meet immediate food needs and alleviate hunger in a timely manner WFP distributes the food that donor countries provide. If donors provide rice, then we can distribute rice. If they provide sorghum, then we distribute sorghum.
2014-04-22 11:36:38	Change of Sorghum to Maize	Consortium of Cooperating Partners (COCOP)	General Food Distribution (GFD)	Arabia	0729473280	Male	General enquiry	The caller is requesting if WFP can change the sorghum to more stable food like maize, he said that, the water for Arabia and Lafey is salty and therefore when cooked with Sorghum the taste of the food is changed and it normally affects the health of the children. They said it causes stomach ache and it has led many children in the area to have sever diarrhea. 	WFP acknowledges that sorghum is not preferred by all beneficiaries, and we do advocate on behalf of beneficiaries to our donors for more diverse cereals. But in the end, to meet immediate food needs and alleviate hunger in a timely manner WFP distributes the food that donor countries provide. If donors provide rice, then we can distribute rice. If they provide sorghum, then we distribute sorghum.
2014-04-22 11:34:29	Change of Sorghum to Maize	Consortium of Cooperating Partners (COCOP)	General Food Distribution (GFD)		0727843869	Male	General enquiry	The caller is requesting if WFP can change the sorghum to more stable food like maize, he said that, the water for Arabia and Lafey is salty and therefore when cooked with Sorghum the taste of the food is changed and it normally affects the health of the children. They said it causes stomach ache and it has led many children in the area to have sever diarrhea. 	WFP acknowledges that sorghum is not preferred by all beneficiaries, and we do advocate on behalf of beneficiaries to our donors for more diverse cereals. But in the end, to meet immediate food needs and alleviate hunger in a timely manner WFP distributes the food that donor countries provide. If donors provide rice, then we can distribute rice. If they provide sorghum, then we distribute sorghum.
2014-04-22 11:29:28	Change of Sorghum to Maize	Consortium of Cooperating Partners (COCOP)	General Food Distribution (GFD)		0716279433	Male	General enquiry	The caller is requesting if  WFP can change the sorghum to more stable food like maize, he said that, the water for Arabia and Lafey is salty and therefore when cooked with Sorghum the taste of the food is changed and it normally affects the health of the children. They said it causes stomach ache and it has led many children in the area to have sever diarrhea.	WFP acknowledges that sorghum is not preferred by all beneficiaries, and we do advocate on behalf of beneficiaries to our donors for more diverse cereals. But in the end, to meet immediate food needs and alleviate hunger in a timely manner WFP distributes the food that donor countries provide. If donors provide rice, then we can distribute rice. If they provide sorghum, then we distribute sorghum.
2014-04-22 11:24:25	change of Sorghum to More stable Food.	Consortium of Cooperating Partners (COCOP)	General Food Distribution (GFD)	Mandera	0712766971	Female	General enquiry	The beneficiary requested if the current cereal they are receiving can be changed with either maize or rice. 	WFP acknowledges that sorghum is not preferred by all beneficiaries, and we do advocate on behalf of beneficiaries to our donors for more diverse cereals. But in the end, to meet immediate food needs and alleviate hunger in a timely manner WFP distributes the food that donor countries provide. If donors provide rice, then we can distribute rice. If they provide sorghum, then we distribute sorghum.
2014-04-22 11:23:01	Change of Sorghum to Maize	Consortium of Cooperating Partners (COCOP)	General Food Distribution (GFD)	Sala Mandera	0720426957	Male	General enquiry	The beneficiary requested if the current cereal they are receiving can be changed with either maize or rice. They have however appreciated WFP for providing food aid for along time. They are also very grateful for the roll out of the Hotline number.	WFP acknowledges that sorghum is not preferred by all beneficiaries, and we do advocate on behalf of beneficiaries to our donors for more diverse cereals. But in the end, to meet immediate food needs and alleviate hunger in a timely manner WFP distributes the food that donor countries provide. If donors provide rice, then we can distribute rice. If they provide sorghum, then we distribute sorghum.
2014-04-22 11:21:32	Change of Sorghum to Maize	Consortium of Cooperating Partners (COCOP)	General Food Distribution (GFD)	El-wak	0729000616	Male	General enquiry	The beneficiary requested if the current cereal they are receiving can be changed with either maize or rice. They have however appreciated WFP for providing food aid for along time. They are also very grateful for the  roll out of the Hotline number.	WFP acknowledges that sorghum is not preferred by all beneficiaries, and we do advocate on behalf of beneficiaries to our donors for more diverse cereals. But in the end, to meet immediate food needs and alleviate hunger in a timely manner WFP distributes the food that donor countries provide. If donors provide rice, then we can distribute rice. If they provide sorghum, then we distribute sorghum.
2014-04-17 12:10:05	Change of Sorghum to Maize	Consortium of Cooperating Partners (COCOP)	General Food Distribution (GFD)	libahyaha	0726033168	Male	General enquiry	The caller is also the chief area, on behalf of the people of Libahyah FDP, he requested if the sorghum can be changed to Maize or Cash.  Advice and give him feedback.	
2014-04-17 12:07:38	Change of Sorghum to Maize	Consortium of Cooperating Partners (COCOP)	General Food Distribution (GFD)	Shimbir Fatuma- El wak	0722360329	Male	General enquiry	The caller requested if the sorghum they are currently receiving can be substituted with Maize or more stable food like Rice, he also appreciated the roll out of CFM in Mandera. Kindly advice him	WFP acknowledges that sorghum is not preferred by all beneficiaries, and we do advocate on behalf of beneficiaries to our donors for more diverse cereals. But in the end, to meet immediate food needs and alleviate hunger in a timely manner WFP distributes the food that donor countries provide. If donors provide rice, then we can distribute rice. If they provide sorghum, then we distribute sorghum.
2014-04-17 07:37:40	Change of Sorghum to Maize	Consortium of Cooperating Partners (COCOP)	General Food Distribution (GFD)	Farey - Rhamu	0710953967	Female	General enquiry	The beneficiary requested if the currently sorghum they are receiving  can be replaced with Maize. kindly advice him.	WFP acknowledges that sorghum is not preferred by all beneficiaries, and we do advocate on behalf of beneficiaries to our donors for more diverse cereals. But in the end, to meet immediate food needs and alleviate hunger in a timely manner WFP distributes the food that donor countries provide. If donors provide rice, then we can distribute rice. If they provide sorghum, then we distribute sorghum.
2014-04-17 06:20:20	Registration.	Consortium of Cooperating Partners (COCOP)	General Food Distribution (GFD)	El-wak	0722630511	Male	General enquiry	The beneficiary called to inquire if he can be registered to the GFD program.	I have advised him his request will be forwarded to the concerned people.
2014-04-16 12:25:54	High quality Food	Consortium of Cooperating Partners (COCOP)	General Food Distribution (GFD)	Rhamu	07213496	Female	General enquiry	The caller requested if the food they are currently receiving can be changed with more stable food like Rice, pasta and Flour. He said they appreciate the food they are getting  from WFP, but he said more varieties will be more better.	I have advised him that his request will be forwarded to the country programme Team
2014-04-16 12:08:15	Appreciation	Consortium of Cooperating Partners (COCOP)	Not Applicable	Wargadud	0701899009	Male	General enquiry	The called appreciated the roll of Hotline in Mandera and he said that, they were facing many problems with CP and this will be the right platform to air their complains.	I told him his message was noted. and it will be forwarded to the country programme team for review.
2014-04-16 12:05:15	Food to Cash	Consortium of Cooperating Partners (COCOP)	General Food Distribution (GFD)	Wargadud	0716532497	Male	General enquiry	A beneficiary by the name Hassan called from Wargadud- Mandera  and requested from WFP, if the food kind they are currently receiving can be substituted with cash.	I have advised, that his request was noted and it will b forwarded to the concerned team for consideration.
