2015-04-20 09:54:10,Need cash assistance,P3,New,category_Targeting_Registration
2015-04-10 07:51:59,WFP assistance,P3,New,category_General_enquiry
2015-03-23 09:18:22,Payment Enquiry,P3,Closed,category_inclusion_exclusion
2015-03-18 12:54:44,Payment Enquiry,P3,Closed,category_distribution_enquiry
2015-02-25 08:42:36,Cash Inquiry,P3,Closed,category_distribution_enquiry
2015-02-25 08:16:43,Cash inquiry - CFA,P3,Closed,category_inclusion_exclusion
2015-02-25 07:51:14,ATM card.,P2,Closed,category_Technical_Issues
2015-02-25 07:41:13,ATM card.,P2,Closed,category_Technical_Issues
2015-02-13 09:12:50,Payment enquiry,P3,Closed,category_inclusion_exclusion
2015-02-13 09:02:21,Payment enquiry,P3,Closed,category_inclusion_exclusion
2015-02-13 07:04:08,Registration.,P3,Closed,category_Targeting_Registration_information
2015-02-13 06:57:17,Cash enquiry - Cash lite,P3,Closed,category_inclusion_exclusion
2015-02-05 06:58:56,Cash enquiry - Cash lite,P3,Closed,category_General_enquiry
2015-02-05 06:28:46,Lost  ATM PIN.,P2,Closed,category_General_enquiry
2015-02-05 06:23:01,Cash enquiry - Cash lite,P3,Closed,category_General_enquiry
2015-02-03 07:25:25,Cash enquiry - Cashlite,P3,Closed,category_General_enquiry
2015-01-20 13:16:16,Cash enquiry - Cashlite,P3,Closed,category_General_enquiry
2015-01-20 13:09:50,Cash enquiry - CFA,P2,Closed,category_Technical_Issues
2015-01-08 06:45:21,Cash enquiry - Cash lite,P3,Closed,category_General_enquiry
2014-12-30 06:24:17,Cash enquiry - Cash lite,P3,Closed,category_General_enquiry
2014-12-30 06:15:00,Cash enquiry - Cash lite,P3,Closed,category_General_enquiry
2014-12-26 08:11:42,Cash enquiry,P3,Closed,category_inclusion_exclusion
2014-12-23 08:18:32,Technical Issue,P3,Closed,category_Technical_Issues
2014-12-10 06:34:01,enquiries.,P3,Closed,category_distribution_enquiry
2014-12-04 08:00:27,Payment enquiry,P3,Closed,category_distribution_enquiry
2014-12-04 07:32:35,Payment enquiry,P1,Closed,category_inclusion_exclusion
2014-12-04 06:08:29,Payment enquiry,P3,Closed,category_inclusion_exclusion
2014-12-04 05:41:12,Payment enquiry,P3,Closed,category_inclusion_exclusion
2014-11-05 12:10:33,Cash enquiry - Cash lite,P3,Closed,category_General_enquiry
2014-10-29 08:58:30,Payment enquiry,P3,Closed,category_distribution_enquiry
2014-10-29 08:31:46,ATM,P3,Pending Input,category_distribution_enquiry
2014-10-28 13:29:49,Payment enquiry,P3,Closed,category_distribution_enquiry
2014-10-28 13:22:05,ATM,P2,Pending Input,category_distribution_enquiry
2014-10-21 07:32:19,Cash enquiry - Cash lite,P3,Closed,category_General_enquiry
2014-10-17 08:00:05,Cash enquiry - Cash lite,P2,Closed,category_Technical_Issues
2014-10-16 06:20:51,Registration,P2,Closed,category_Targeting_Registration
2014-10-15 14:49:47,Payment enquiry,P3,Pending Input,category_inclusion_exclusion
2014-10-15 14:30:13,Payment enquiry,P2,Pending Input,category_inclusion_exclusion
2014-10-15 14:24:58,ATM,P2,Closed,category_inclusion_exclusion
2014-10-15 14:14:36,cash enquiry,P3,Closed,category_inclusion_exclusion
2014-10-15 14:11:27,cash enquiry,P3,Closed,category_inclusion_exclusion
2014-10-15 14:07:33,ATM,P2,Pending Input,category_distribution_enquiry
2014-10-15 12:11:48,Testing the line,P3,Closed,category_General_enquiry
2014-09-30 13:43:53,cash enquiry,P3,Closed,category_distribution_enquiry
2014-09-30 13:26:16,cash enquiry,P3,Closed,category_distribution_enquiry
2014-09-30 12:56:23,ATM,P3,Pending Input,category_inclusion_exclusion
2014-09-30 12:39:20,Payment enquiry,P3,Closed,category_distribution_enquiry
2014-09-30 12:23:51,cash enquiry,P3,Closed,category_distribution_enquiry
2014-09-30 12:23:49,cash enquiry,P3,Closed,category_distribution_enquiry
2014-09-24 07:47:19,Targeting Issue,P2,Closed,category_Targeting_Registration
2014-09-24 07:22:02,Payment enquiry,P3,Closed,category_inclusion_exclusion
2014-09-24 06:45:17,cash enquiry,P3,Closed,category_distribution_enquiry
2014-09-22 07:02:54,Targeting Issue,P2,Closed,category_distribution_enquiry
2014-09-18 08:22:27,ATM,P2,Pending Input,category_distribution_enquiry
2014-09-17 09:12:31,Deactivated card,P2,Closed,category_Technical_Issues
2014-09-17 08:39:50,ATM,P2,Pending Input,category_General_enquiry
2014-09-16 07:14:33,Cash enquiry,P3,Closed,category_General_enquiry
2014-09-15 12:59:57,enquiries.,P3,Closed,category_General_enquiry
2014-09-15 12:55:11,Cash enquiry,P3,Pending Input,category_General_enquiry
2014-09-15 12:50:02,card Usage.,P3,Closed,category_General_enquiry
2014-09-15 12:42:41,Cash enquiry,P3,Closed,category_General_enquiry
2014-09-03 12:55:14,ATM,P3,Pending Input,category_General_enquiry
2014-09-01 08:24:47,ATM,P3,Pending Input,category_General_enquiry
2014-09-01 08:23:05,ATM,P3,Pending Input,category_General_enquiry
2014-09-01 06:01:22,Cash enquiry,P3,Pending Input,category_Technical_Issues
2014-09-01 05:55:46,ATM,P3,Pending Input,category_General_enquiry
2014-09-01 05:51:36,ATM,P3,Pending Input,category_General_enquiry
2014-08-29 06:04:28,Cash enquiry,P3,Closed,category_Targeting_Registration
2014-08-29 05:54:30,ATM,P3,Pending Input,category_General_enquiry
2014-08-29 05:51:44,Cash enquiry,P3,Closed,category_General_enquiry
2014-08-25 09:44:21,Cash enquiry - Cash lite,P3,Pending Input,category_General_enquiry
2014-08-25 09:16:12,Balance enquiry.,P3,Closed,category_General_enquiry
2014-08-25 09:01:02,Entitlements,P3,Pending Input,category_inclusion_exclusion
2014-08-25 08:41:28,ATM,P3,Pending Input,category_General_enquiry
2014-08-25 08:39:35,ATM,P3,Pending Input,category_General_enquiry
2014-08-25 07:58:23,ATM,P3,Pending Input,category_General_enquiry
2014-08-25 07:14:05,Entitlements,P3,Pending Input,category_inclusion_exclusion
2014-08-25 06:59:40,Wrong PIN on the Card.,P3,Pending Input,category_Technical_Issues
2014-08-25 06:54:45,ATM,P3,Pending Input,category_General_enquiry
